Chr,Pos,Ref,Alt,Transcript,transcript_id,utr3_transcript_id,utr5_transcript_id,cds_transcript_id,startCodon_transcript_id,startCodon_positions,stopCodon_transcript_id,stopCodon_positions,kozak_transcript_id,kozak_positions,num_uAUG,num_uAUG_altered,num_kozak,num_kozak_altered,utr_num_uAUG_gainedOrLost,utr_num_kozak_gainedOrLost,num_polyA_signal,num_polyA_signal_altered,num_polyA_signal_gainedOrLost,stop_codon,stop_codon_altered,start_codon,start_codon_altered,kozak,kozak_altered,lost_start_codon,lost_stop_codon,kozak_score,kozak_altered_score,tss_kozak_score_gainedOrLost,hg38.phastCons100way.bw,hg38.phyloP100way.bw,mrl,mrl_altered,mrl_gainedOrLost
chr1,1308643,CAT,C,ENST00000379031,ENST00000379031,NA,ENST00000379031,ENST00000379031,ENST00000379031,1308644|1308645|1308646,NA,NA,ENST00000379031,1308641|1308642|1308643|1308644|1308645|1308646|1308647|1308648,0,0,0,0,equal,equal,NA,NA,NA,NA,NA,ATG,G,GCCATGAG,GCCGAG,TRUE,NA,0.908991519,0,lost,0.002;0.58;0.894,-0.894;0.787;1.239,4.9137,4.9137,equal
chr12,69693767,G,T,ENST00000266661;ENST00000330891;ENST00000331471;ENST00000476098;ENST00000548658;ENST00000551160;ENST00000552295;ENST00000553096,ENST00000266661;ENST00000330891;ENST00000331471;ENST00000476098;ENST00000551160;ENST00000553096,NA,ENST00000476098,ENST00000266661;ENST00000330891;ENST00000331471;ENST00000551160;ENST00000553096,NA,NA,NA,NA,NA,NA,4,4,0,0,equal,equal,NA,NA,NA,NA,NA,NA,NA,NA,NA,NA,NA,NA,NA,NA,1,6.806,4.987314,5.198262,gained
chr12,4685084,A,G,ENST00000266544;ENST00000540688,ENST00000266544;ENST00000540688,NA,ENST00000540688,NA,NA,NA,NA,NA,ENST00000540688,4685083|4685084|4685085|4685086|4685087|4685088|4685089|4685090,0,0,0,0,equal,equal,NA,NA,NA,NA,NA,NA,NA,GAGATGGA,GGGATGGA,NA,NA,0.903712638,0.854998049,lost,0.008,0.641,6.714267,6.584802,lost
chr15,45691267,A,G,ENST00000260324;ENST00000568606,ENST00000260324;ENST00000568606,ENST00000260324;ENST00000568606,NA,NA,NA,NA,NA,NA,NA,NA,NA,NA,NA,NA,NA,NA,2;2,1;1,lost,NA,NA,NA,NA,NA,NA,NA,NA,NA,NA,NA,1,2.649,NA,NA,NA
chr16,57167173,C,A,ENST00000309137;ENST00000389447;ENST00000562324;ENST00000562406;ENST00000564108;ENST00000565458;ENST00000565956;ENST00000566077;ENST00000567044;ENST00000567439;ENST00000569266,ENST00000309137;ENST00000389447;ENST00000564108;ENST00000566077;ENST00000567439;ENST00000569266,NA,NA,ENST00000309137;ENST00000389447;ENST00000564108;ENST00000566077;ENST00000567439;ENST00000569266,NA,NA,NA,NA,NA,NA,NA,NA,NA,NA,NA,NA,NA,NA,NA,NA,NA,NA,NA,NA,NA,NA,NA,NA,NA,NA,1,1.849,NA,NA,NA
chr16,71644959,TTTTA,T,ENST00000393524;ENST00000568954,ENST00000393524;ENST00000568954,ENST00000393524;ENST00000568954,NA,NA,NA,NA,NA,NA,NA,NA,NA,NA,NA,NA,NA,NA,7;7,6;6,lost,NA,NA,NA,NA,NA,NA,NA,NA,NA,NA,NA,1;1;1;0.999;0.999,2.48;2.607;4.156;0.496;0.724,NA,NA,NA
chr17,39065232,G,A,ENST00000315392,ENST00000315392,ENST00000315392,NA,NA,NA,NA,NA,NA,NA,NA,NA,NA,NA,NA,NA,NA,8,9,gained,NA,NA,NA,NA,NA,NA,NA,NA,NA,NA,NA,0.042,0.421,NA,NA,NA
chr1,3747728,T,C,NA,NA,NA,NA,NA,NA,NA,NA,NA,NA,NA,NA,NA,NA,NA,NA,NA,NA,NA,NA,NA,NA,NA,NA,NA,NA,NA,NA,NA,NA,NA,0.003,0.016,NA,NA,NA
chr1,38338861,C,A,NA,NA,NA,NA,NA,NA,NA,NA,NA,NA,NA,NA,NA,NA,NA,NA,NA,NA,NA,NA,NA,NA,NA,NA,NA,NA,NA,NA,NA,NA,NA,0,-0.412,NA,NA,NA
chr11,75169798,A,C,ENST00000289575;ENST00000428359;ENST00000454962;ENST00000525650;ENST00000526839;ENST00000532236,ENST00000289575;ENST00000428359;ENST00000454962;ENST00000525650;ENST00000532236,NA,NA,NA,NA,NA,NA,NA,NA,NA,NA,NA,NA,NA,NA,NA,NA,NA,NA,NA,NA,NA,NA,NA,NA,NA,NA,NA,NA,NA,0.002,1.055,NA,NA,NA
chr11,121055309,G,T,ENST00000422003;ENST00000524726;ENST00000529397;ENST00000533134;ENST00000645041,ENST00000422003;ENST00000529397,NA,NA,NA,NA,NA,NA,NA,NA,NA,NA,NA,NA,NA,NA,NA,NA,NA,NA,NA,NA,NA,NA,NA,NA,NA,NA,NA,NA,NA,1,9.999,NA,NA,NA
chr12,47798924,A,G,ENST00000080059;ENST00000354334;ENST00000380610;ENST00000417107;ENST00000417902;ENST00000421231;ENST00000422254;ENST00000427332;ENST00000430670;ENST00000433685;ENST00000434070;ENST00000440293;ENST00000445237;ENST00000447463;ENST00000450805;ENST00000552960,ENST00000080059;ENST00000354334;ENST00000380610;ENST00000427332;ENST00000552960,NA,NA,ENST00000080059;ENST00000354334;ENST00000380610;ENST00000427332;ENST00000552960,ENST00000427332,47798923|47798924|47798925,NA,NA,ENST00000427332,47798921|47798922|47798923|47798924|47798925|47798926|47798927|47798928,NA,NA,NA,NA,NA,NA,NA,NA,NA,NA,NA,ATG,ACG,CCCATGGA,CCCACGGA,TRUE,NA,0.831790617,0.682619065,lost,1,3.369,NA,NA,NA
chr15,38253188,G,A,ENST00000299084;ENST00000561317,ENST00000299084,NA,NA,ENST00000299084,ENST00000299084,38253186|38253187|38253188,NA,NA,ENST00000299084,38253183|38253184|38253185|38253186|38253187|38253188|38253189|38253190,NA,NA,NA,NA,NA,NA,NA,NA,NA,NA,NA,ATG,ATA,AAGATGAG,AAGATAAG,TRUE,NA,0.854854668,0.705683116,lost,1,6.916,NA,NA,NA