﻿Chr,Pos,Ref,Alt,Gene,Transcript,Consequence
1,3559180,ATCTCTC,"ATC,A",ENSMUSG00000051951,ENSMUST00000070533,intron_variant
1,3539056,GCTCTCTCTCT,"GCT,G",ENSMUSG00000051951,ENSMUST00000070533,intron_variant
1,3510736,T,TA,ENSMUSG00000051951,ENSMUST00000070533,intron_variant
17,7925146,C,T,"ENSMUSG00000090069,ENSMUSG00000033450","ENSMUST00000160177,ENSMUST00000036370","intron_variant&non_coding_transcript_variant,upstream_gene_variant"
17,7928514,G,A,ENSMUSG00000090069,ENSMUST00000160177,intron_variant&non_coding_transcript_variant
17,7932400,C,T,"ENSMUSG00000090069,ENSMUSG00000090069,ENSMUSG00000033450","ENSMUST00000160177,ENSMUST00000160545,ENSMUST00000036370","intron_variant&non_coding_transcript_variant,non_coding_transcript_exon_variant&non_coding_transcript_variant,intron_variant"
10,81178152,A,C,"ENSMUSG00000034994,ENSMUSG00000053603,ENSMUSG00000064441,ENSMUSG00000034974","ENSMUST00000047864,ENSMUST00000056086,ENSMUST00000082507,ENSMUST00000178422","synonymous_variant,downstream_gene_variant,upstream_gene_variant,upstream_gene_variant"